{
	"info": {
		"_postman_id": "cc5dacc5-7022-4397-bb36-adda0ecd5619",
		"name": "freiza-pigcd",
		"schema": "https://schema.getpostman.com/json/collection/v2.0.0/collection.json"
	},
	"item": [
		{
			"name": "get-status",
			"request": {
				"method": "GET",
				"header": [],
				"url": "{{host}}:{{port}}/"
			},
			"response": []
		},
		{
			"name": "close-server",
			"request": {
				"method": "POST",
				"header": [],
				"body": {
					"mode": "raw",
					"raw": "$close"
				},
				"url": "{{host}}:{{port}}/"
			},
			"response": []
		},
		{
			"name": "simple-move-quick",
			"request": {
				"method": "POST",
				"header": [],
				"body": {
					"mode": "raw",
					"raw": "G0X10\nG0Y10\nG0Z3\nG0X0Y0Z0\n"
				},
				"url": "{{host}}:{{port}}/"
			},
			"response": []
		}
	],
	"event": [
		{
			"listen": "prerequest",
			"script": {
				"type": "text/javascript",
				"exec": [
					""
				]
			}
		},
		{
			"listen": "test",
			"script": {
				"type": "text/javascript",
				"exec": [
					""
				]
			}
		}
	],
	"variable": [
		{
			"key": "host",
			"value": "localhost",
			"type": "default"
		},
		{
			"key": "port",
			"value": "12112",
			"type": "default"
		}
	]
}